[	0.0000000000000000e+00	1.2999999999501334e+01	]
[	6.6666666666666671e-03	1.2999999999501334e+01	]
[	1.3333333333333334e-02	1.2999999999501334e+01	]
[	2.0000000000000000e-02	1.2999999999501334e+01	]
[	2.6666666666666668e-02	1.2999999999501334e+01	]
[	3.3333333333333333e-02	1.2999999999501334e+01	]
[	4.0000000000000001e-02	1.2999999999501334e+01	]
[	4.6666666666666669e-02	1.2999999999501334e+01	]
[	5.3333333333333337e-02	1.2999999999501334e+01	]
[	5.9999999999999998e-02	1.2999999999501334e+01	]
[	6.6666666666666666e-02	1.2999999999501334e+01	]
[	7.3333333333333334e-02	1.2999999999501334e+01	]
[	8.0000000000000002e-02	1.2999999999501334e+01	]
[	8.6666666666666670e-02	1.2999999999501334e+01	]
[	9.3333333333333338e-02	1.2999999999501334e+01	]
[	1.0000000000000001e-01	1.2999999999501334e+01	]
[	1.0666666666666667e-01	1.2999999999501334e+01	]
[	1.1333333333333333e-01	1.2999999999501334e+01	]
[	1.2000000000000000e-01	1.2999999999501334e+01	]
[	1.2666666666666668e-01	1.2999999999501334e+01	]
[	1.3333333333333333e-01	1.2999999999501334e+01	]
[	1.4000000000000001e-01	1.2999999999501334e+01	]
[	1.4666666666666667e-01	1.2999999999501334e+01	]
[	1.5333333333333332e-01	1.2999999999501334e+01	]
[	1.6000000000000000e-01	1.2999999999501334e+01	]
[	1.6666666666666666e-01	1.2999999999501334e+01	]
[	1.7333333333333334e-01	1.2999999999501334e+01	]
[	1.7999999999999999e-01	1.2999999999501334e+01	]
[	1.8666666666666668e-01	1.2999999999501334e+01	]
[	1.9333333333333333e-01	1.2999999999501334e+01	]
[	2.0000000000000001e-01	1.2999999999501334e+01	]
[	2.0666666666666667e-01	1.2999999999501334e+01	]
[	2.1333333333333335e-01	1.2999999999501334e+01	]
[	2.2000000000000000e-01	1.2999999999501334e+01	]
[	2.2666666666666666e-01	1.2999999999501334e+01	]
[	2.3333333333333334e-01	1.2999999999501334e+01	]
[	2.3999999999999999e-01	1.2999999999501334e+01	]
[	2.4666666666666667e-01	1.2999999999501334e+01	]
[	2.5333333333333335e-01	1.2999999999501334e+01	]
[	2.6000000000000001e-01	1.2999999999501334e+01	]
[	2.6666666666666666e-01	1.2999999999501334e+01	]
[	2.7333333333333332e-01	1.2999999999501334e+01	]
[	2.8000000000000003e-01	1.2999999999501334e+01	]
[	2.8666666666666668e-01	1.2999999999501334e+01	]
[	2.9333333333333333e-01	1.2999999999501334e+01	]
[	2.9999999999999999e-01	1.2999999999501334e+01	]
[	3.0666666666666664e-01	1.2999999999501334e+01	]
[	3.1333333333333335e-01	1.2999999999501334e+01	]
[	3.2000000000000001e-01	1.2999999999501334e+01	]
[	3.2666666666666666e-01	1.2999999999501334e+01	]
[	3.3333333333333331e-01	1.2999999999501334e+01	]
[	3.4000000000000002e-01	1.2999999999501334e+01	]
[	3.4666666666666668e-01	1.2999999999501334e+01	]
[	3.5333333333333333e-01	1.2999999999501334e+01	]
[	3.5999999999999999e-01	1.2999999999501334e+01	]
[	3.6666666666666664e-01	1.2999999999501334e+01	]
[	3.7333333333333335e-01	1.2999999999501334e+01	]
[	3.8000000000000000e-01	1.2999999999501334e+01	]
[	3.8666666666666666e-01	1.2999999999501334e+01	]
[	3.9333333333333331e-01	1.2999999999501334e+01	]
[	4.0000000000000002e-01	1.2999999999501334e+01	]
[	4.0666666666666668e-01	1.2999999999501334e+01	]
[	4.1333333333333333e-01	1.2999999999501334e+01	]
[	4.1999999999999998e-01	1.2999999999501334e+01	]
[	4.2666666666666669e-01	1.2999999999501334e+01	]
[	4.3333333333333335e-01	1.2999999999501334e+01	]
[	4.4000000000000000e-01	1.2999999999501334e+01	]
[	4.4666666666666666e-01	1.2999999999501334e+01	]
[	4.5333333333333331e-01	1.2999999999501334e+01	]
[	4.6000000000000002e-01	1.2999999999501334e+01	]
[	4.6666666666666667e-01	1.2999999999501334e+01	]
[	4.7333333333333333e-01	1.2999999999501334e+01	]
[	4.7999999999999998e-01	1.2999999999501334e+01	]
[	4.8666666666666669e-01	1.2999999999501334e+01	]
[	4.9333333333333335e-01	1.2999999999501334e+01	]
[	5.0000000000000000e-01	1.2999999999501334e+01	]
[	5.0666666666666671e-01	1.2999999999501334e+01	]
[	5.1333333333333331e-01	1.2999999999501334e+01	]
[	5.2000000000000002e-01	1.2999999999501334e+01	]
[	5.2666666666666662e-01	1.2999999999501334e+01	]
[	5.3333333333333333e-01	1.2999999999501334e+01	]
[	5.4000000000000004e-01	1.2999999999501334e+01	]
[	5.4666666666666663e-01	1.2999999999501334e+01	]
[	5.5333333333333334e-01	1.2999999999501334e+01	]
[	5.6000000000000005e-01	1.2999999999501334e+01	]
[	5.6666666666666665e-01	1.2999999999501334e+01	]
[	5.7333333333333336e-01	1.2999999999501334e+01	]
[	5.7999999999999996e-01	1.2999999999501334e+01	]
[	5.8666666666666667e-01	1.2999999999501334e+01	]
[	5.9333333333333338e-01	1.2999999999501334e+01	]
[	5.9999999999999998e-01	1.2999999999501334e+01	]
[	6.0666666666666669e-01	1.2999999999501334e+01	]
[	6.1333333333333329e-01	1.2999999999501334e+01	]
[	6.2000000000000000e-01	1.2999999999501334e+01	]
[	6.2666666666666671e-01	1.2999999999501334e+01	]
[	6.3333333333333330e-01	1.2999999999501334e+01	]
[	6.4000000000000001e-01	1.2999999999501334e+01	]
[	6.4666666666666661e-01	1.2999999999501334e+01	]
[	6.5333333333333332e-01	1.2999999999501334e+01	]
[	6.6000000000000003e-01	1.2999999999501334e+01	]
[	6.6666666666666663e-01	1.2999999999501334e+01	]
[	6.7333333333333334e-01	1.2999999999501334e+01	]
[	6.8000000000000005e-01	1.2999999999501334e+01	]
[	6.8666666666666665e-01	1.2999999999501334e+01	]
[	6.9333333333333336e-01	1.2999999999501334e+01	]
[	6.9999999999999996e-01	1.2999999999501334e+01	]
[	7.0666666666666667e-01	1.2999999999501334e+01	]
[	7.1333333333333337e-01	1.2999999999501334e+01	]
[	7.1999999999999997e-01	1.2999999999501334e+01	]
[	7.2666666666666668e-01	1.2999999999501334e+01	]
[	7.3333333333333328e-01	1.2999999999501334e+01	]
[	7.3999999999999999e-01	1.2999999999501334e+01	]
[	7.4666666666666670e-01	1.2999999999501334e+01	]
[	7.5333333333333330e-01	1.2999999999501334e+01	]
[	7.6000000000000001e-01	1.2999999999501334e+01	]
[	7.6666666666666672e-01	1.2999999999501334e+01	]
[	7.7333333333333332e-01	1.2999999999501334e+01	]
[	7.8000000000000003e-01	1.2999999999501334e+01	]
[	7.8666666666666663e-01	1.2999999999501334e+01	]
[	7.9333333333333333e-01	1.2999999999501334e+01	]
[	8.0000000000000004e-01	1.2999999999501334e+01	]
[	8.0666666666666664e-01	1.2999999999501334e+01	]
[	8.1333333333333335e-01	1.2999999999501334e+01	]
[	8.1999999999999995e-01	1.2999999999501334e+01	]
[	8.2666666666666666e-01	1.2999999999501334e+01	]
[	8.3333333333333337e-01	1.2999999999501334e+01	]
[	8.3999999999999997e-01	1.2999999999501334e+01	]
[	8.4666666666666668e-01	1.2999999999501334e+01	]
[	8.5333333333333339e-01	1.2999999999501334e+01	]
[	8.5999999999999999e-01	1.2999999999501334e+01	]
[	8.6666666666666670e-01	1.2999999999501334e+01	]
[	8.7333333333333329e-01	1.2999999999501334e+01	]
[	8.8000000000000000e-01	1.2999999999501334e+01	]
[	8.8666666666666671e-01	1.2999999999501334e+01	]
[	8.9333333333333331e-01	1.2999999999501334e+01	]
[	9.0000000000000002e-01	1.2999999999501334e+01	]
[	9.0666666666666662e-01	1.2999999999501334e+01	]
[	9.1333333333333333e-01	1.2999999999501334e+01	]
[	9.2000000000000004e-01	1.2999999999501334e+01	]
[	9.2666666666666664e-01	1.2999999999501334e+01	]
[	9.3333333333333335e-01	1.2999999999501334e+01	]
[	9.3999999999999995e-01	1.2999999999501334e+01	]
[	9.4666666666666666e-01	1.2999999999501334e+01	]
[	9.5333333333333337e-01	1.2999999999501334e+01	]
[	9.5999999999999996e-01	1.2999999999501334e+01	]
[	9.6666666666666667e-01	1.2999999999501334e+01	]
[	9.7333333333333338e-01	1.2999999999501334e+01	]
[	9.7999999999999998e-01	1.2999999999501334e+01	]
[	9.8666666666666669e-01	1.2999999999501334e+01	]
[	9.9333333333333329e-01	1.2999999999501334e+01	]
[	1.0000000000000000e+00	1.2999999999501334e+01	]
